J B Lenoir,You Shook Me(2),BBC Sessions [Disc 1] [Live],10
Willie Dixon,You Shook Me(2),BBC Sessions [Disc 1] [Live],10
Chester Burnett,How Many More Times,BBC Sessions [Disc 1] [Live],11
Jimmy Page,How Many More Times,BBC Sessions [Disc 1] [Live],11
John Bonham,How Many More Times,BBC Sessions [Disc 1] [Live],11
John Paul Jones,How Many More Times,BBC Sessions [Disc 1] [Live],11
Robert Plant,How Many More Times,BBC Sessions [Disc 1] [Live],11
Frank Zappa,Advance Romance,Bongo Fury,11
Diamond,Mercyful Fate,Garage Inc. (Disc 1),11
Shermann,Mercyful Fate,Garage Inc. (Disc 1),11
Coverdale,Mistreated,MK III The Final Concerts [Disc 1],12
Gillan,Smoke On The Water,MK III The Final Concerts [Disc 1],10
Glover,Smoke On The Water,MK III The Final Concerts [Disc 1],10
Lord,Smoke On The Water,MK III The Final Concerts [Disc 1],10
Paice,Smoke On The Water,MK III The Final Concerts [Disc 1],10
Coverdale,You Fool No One,MK III The Final Concerts [Disc 1],13
Lord,You Fool No One,MK III The Final Concerts [Disc 1],13
Paice,You Fool No One,MK III The Final Concerts [Disc 1],13
John Bonham,In My Time Of Dying,Physical Graffiti [Disc 1],11
John Paul Jones,In My Time Of Dying,Physical Graffiti [Disc 1],11
Carlos Santana,The Calling,Supernatural,12
C. Thompson,The Calling,Supernatural,12
Miles Davis,Walkin',The Essential Miles Davis [Disc 1],13
Miles Davis,My Funny Valentine (Live),The Essential Miles Davis [Disc 2],15
Miles Davis,Miles Runs The Voodoo Down,The Essential Miles Davis [Disc 2],14
Blackmore,Space Truckin',The Final Concerts (Disc 2),19
Gillan,Space Truckin',The Final Concerts (Disc 2),19
Glover,Space Truckin',The Final Concerts (Disc 2),19
Lord,Space Truckin',The Final Concerts (Disc 2),19
Paice,Space Truckin',The Final Concerts (Disc 2),19
Gillan,Going Down / Highway Star,The Final Concerts (Disc 2),15
Glover,Going Down / Highway Star,The Final Concerts (Disc 2),15
Lord,Going Down / Highway Star,The Final Concerts (Disc 2),15
Nix - Blackmore,Going Down / Highway Star,The Final Concerts (Disc 2),15
Paice,Going Down / Highway Star,The Final Concerts (Disc 2),15
Blackmore,Mistreated (Alternate Version),The Final Concerts (Disc 2),14
Coverdale,Mistreated (Alternate Version),The Final Concerts (Disc 2),14
Blackmore,You Fool No One (Alternate Version),The Final Concerts (Disc 2),12
Coverdale,You Fool No One (Alternate Version),The Final Concerts (Disc 2),12
Lord,You Fool No One (Alternate Version),The Final Concerts (Disc 2),12
Paice,You Fool No One (Alternate Version),The Final Concerts (Disc 2),12
Whitfield-Strong,I Heard It Through The Grapevine,"Chronicle, Vol. 1",11
Blackmore,Child In Time,Deep Purple In Rock,10
Gillan,Child In Time,Deep Purple In Rock,10
Glover,Child In Time,Deep Purple In Rock,10
Lord,Child In Time,Deep Purple In Rock,10
Paice,Child In Time,Deep Purple In Rock,10
Richie Blackmore,Child In Time (Son Of Aleric - Instrumental),Knocking at Your Back Door: The Best Of Deep Purple in the 80's,10
Ian Gillian,Child In Time (Son Of Aleric - Instrumental),Knocking at Your Back Door: The Best Of Deep Purple in the 80's,10
Roger Glover,Child In Time (Son Of Aleric - Instrumental),Knocking at Your Back Door: The Best Of Deep Purple in the 80's,10
Jon Lord,Child In Time (Son Of Aleric - Instrumental),Knocking at Your Back Door: The Best Of Deep Purple in the 80's,10
Ian Paice,Child In Time (Son Of Aleric - Instrumental),Knocking at Your Back Door: The Best Of Deep Purple in the 80's,10
Jim Beard,Outbreak,Outbreak,10
Jon Herington,Outbreak,Outbreak,10
Harris,Rime of the Ancient Mariner,Powerslave,13
Steve Harris,Sign Of The Cross,Rock In Rio [CD1],10
Steve Harris,Sign Of The Cross,The X Factor,11
Smith,Revolution 1993,Emergency On Planet Earth,10
Toby,Revolution 1993,Emergency On Planet Earth,10
Jimmy Page,Dazed And Confused,BBC Sessions [Disc 2] [Live],18
Led Zeppelin,Dazed And Confused,BBC Sessions [Disc 2] [Live],18
Arthur Crudup,Whole Lotta Love (Medley),BBC Sessions [Disc 2] [Live],13
Bernard Besman,Whole Lotta Love (Medley),BBC Sessions [Disc 2] [Live],13
Bukka White,Whole Lotta Love (Medley),BBC Sessions [Disc 2] [Live],13
Doc Pomus,Whole Lotta Love (Medley),BBC Sessions [Disc 2] [Live],13
John Bonham,Whole Lotta Love (Medley),BBC Sessions [Disc 2] [Live],13
John Lee Hooker,Whole Lotta Love (Medley),BBC Sessions [Disc 2] [Live],13
John Paul Jones,Whole Lotta Love (Medley),BBC Sessions [Disc 2] [Live],13
Mort Shuman,Whole Lotta Love (Medley),BBC Sessions [Disc 2] [Live],13
Robert Plant,Whole Lotta Love (Medley),BBC Sessions [Disc 2] [Live],13
Willie Dixon,Whole Lotta Love (Medley),BBC Sessions [Disc 2] [Live],13
John Paul Jones,Carouselambra,In Through The Out Door,10
Jimmy Page & Robert Plant,Carouselambra,In Through The Out Door,10
Jimmy Page,Achilles Last Stand,Presence,10
Robert Plant,Achilles Last Stand,Presence,10
Jimmy Page,Dazed And Confused,The Song Remains The Same (Disc 1),26
John Paul Jones,No Quarter,The Song Remains The Same (Disc 2),12
Robert Plant,No Quarter,The Song Remains The Same (Disc 2),12
Robert Plant,Stairway To Heaven,The Song Remains The Same (Disc 2),10
John Bonham,Moby Dick,The Song Remains The Same (Disc 2),12
John Paul Jones,Moby Dick,The Song Remains The Same (Disc 2),12
John Bonham,Whole Lotta Love,The Song Remains The Same (Disc 2),14
John Paul Jones,Whole Lotta Love,The Song Remains The Same (Disc 2),14
Robert Plant,Whole Lotta Love,The Song Remains The Same (Disc 2),14
Willie Dixon,Whole Lotta Love,The Song Remains The Same (Disc 2),14
Geddy Lee And Alex Lifeson,Xanadu,Retrospective I (1974-1980),11
Geddy Lee And Neil Peart,Xanadu,Retrospective I (1974-1980),11
Rush,Xanadu,Retrospective I (1974-1980),11
E.Weiss,El Corazon Manda,Santana - As Years Go By,11
E.Weiss,La Puesta Del Sol,Santana - As Years Go By,10
W.Correa,Fried Neckbones And Home Fries,Santana - As Years Go By,10
Carlos Santana,Santana Jam,Santana - As Years Go By,14
Terry Bozzio,The Sun Road,[1997] Black Light Syndrome,14
Steve Stevens,The Sun Road,[1997] Black Light Syndrome,14
Tony Levin,The Sun Road,[1997] Black Light Syndrome,14
Robby Krieger,The End,The Doors,11
Ray Manzarek,The End,The Doors,11
John Densmore,The End,The Doors,11
Jim Morrison,The End,The Doors,11
Astor Campbell,Amy Amy Amy (Outro),Frank,11
"Delroy ""Chris"" Cooper",Amy Amy Amy (Outro),Frank,11
Donovan Jackson,Amy Amy Amy (Outro),Frank,11
Dorothy Fields,Amy Amy Amy (Outro),Frank,11
Earl Chinna Smith,Amy Amy Amy (Outro),Frank,11
Felix Howard,Amy Amy Amy (Outro),Frank,11
Gordon Williams,Amy Amy Amy (Outro),Frank,11
James Moody,Amy Amy Amy (Outro),Frank,11
Jimmy McHugh,Amy Amy Amy (Outro),Frank,11
Matt Rowe,Amy Amy Amy (Outro),Frank,11
Salaam Remi & Stefan Skarbek,Amy Amy Amy (Outro),Frank,11
